XiO Dose Volume Histogram
01234567
course1
PTV
1.00	mm resolution
315	bins
Mon Jan 01 23:59:59 2014
Min. Bin Dose (cGy),  Bin Volume (cc)
     0,             0.0000
    10,             0.0000
    20,             0.0000
    30,             0.0000
    40,             0.0000
    50,             0.0000
    60,             0.0000
    70,             0.0000
    80,             0.0000
    90,             0.0000
   100,             0.0000
   110,             0.0000
   120,             0.0000
   130,             0.0000
   140,             0.0000
   150,             0.0000
   160,             0.0000
   170,             0.0000
   180,             0.0000
   190,             0.0000
   200,             0.0000
   210,             0.0000
   220,             0.0000
   230,             0.0000
   240,             0.0000
   250,             0.0000
   260,             0.0000
   270,             0.0000
   280,             0.0000
   290,             0.0000
   300,             0.0000
   310,             0.0000
   320,             0.0000
   330,             0.0000
   340,             0.0000
   350,             0.0000
   360,             0.0000
   370,             0.0000
   380,             0.0000
   390,             0.0000
   400,             0.0000
   410,             0.0000
   420,             0.0000
   430,             0.0000
   440,             0.0000
   450,             0.0000
   460,             0.0000
   470,             0.0000
   480,             0.0000
   490,             0.0000
   500,             0.0000
   510,             0.0000
   520,             0.0000
   530,             0.0000
   540,             0.0000
   550,             0.0000
   560,             0.0000
   570,             0.0000
   580,             0.0000
   590,             0.0000
   600,             0.0000
   610,             0.0000
   620,             0.0000
   630,             0.0000
   640,             0.0000
   650,             0.0000
   660,             0.0000
   670,             0.0000
   680,             0.0000
   690,             0.0000
   700,             0.0000
   710,             0.0000
   720,             0.0000
   730,             0.0000
   740,             0.0000
   750,             0.0000
   760,             0.0000
   770,             0.0000
   780,             0.0000
   790,             0.0000
   800,             0.0000
   810,             0.0000
   820,             0.0000
   830,             0.0000
   840,             0.0000
   850,             0.0000
   860,             0.0000
   870,             0.0000
   880,             0.0000
   890,             0.0000
   900,             0.0000
   910,             0.0000
   920,             0.0000
   930,             0.0000
   940,             0.0000
   950,             0.0000
   960,             0.0000
   970,             0.0000
   980,             0.0000
   990,             0.0000
  1000,             0.0000
  1010,             0.0000
  1020,             0.0000
  1030,             0.0000
  1040,             0.0000
  1050,             0.0000
  1060,             0.0000
  1070,             0.0000
  1080,             0.0000
  1090,             0.0000
  1100,             0.0000
  1110,             0.0000
  1120,             0.0000
  1130,             0.0000
  1140,             0.0000
  1150,             0.0000
  1160,             0.0000
  1170,             0.0000
  1180,             0.0000
  1190,             0.0000
  1200,             0.0000
  1210,             0.0000
  1220,             0.0000
  1230,             0.0000
  1240,             0.0000
  1250,             0.0000
  1260,             0.0000
  1270,             0.0000
  1280,             0.0000
  1290,             0.0000
  1300,             0.0000
  1310,             0.0000
  1320,             0.0000
  1330,             0.0000
  1340,             0.0000
  1350,             0.0000
  1360,             0.0000
  1370,             0.0000
  1380,             0.0000
  1390,             0.0000
  1400,             0.0000
  1410,             0.0000
  1420,             0.0000
  1430,             0.0000
  1440,             0.0000
  1450,             0.0000
  1460,             0.0000
  1470,             0.0000
  1480,             0.0000
  1490,             0.0000
  1500,             0.0000
  1510,             0.0000
  1520,             0.0000
  1530,             0.0000
  1540,             0.0000
  1550,             0.0000
  1560,             0.0000
  1570,             0.0000
  1580,             0.0000
  1590,             0.0000
  1600,             0.0000
  1610,             0.0000
  1620,             0.0000
  1630,             0.0000
  1640,             0.0000
  1650,             0.0000
  1660,             0.0000
  1670,             0.0000
  1680,             0.0000
  1690,             0.0000
  1700,             0.0000
  1710,             0.0000
  1720,             0.0000
  1730,             0.0000
  1740,             0.0000
  1750,             0.0000
  1760,             0.0000
  1770,             0.0000
  1780,             0.0000
  1790,             0.0000
  1800,             0.0000
  1810,             0.0000
  1820,             0.0000
  1830,             0.0000
  1840,             0.0000
  1850,             0.0000
  1860,             0.0000
  1870,             0.0000
  1880,             0.0000
  1890,             0.0000
  1900,             0.0000
  1910,             0.0000
  1920,             0.0000
  1930,             0.0000
  1940,             0.0000
  1950,             0.0000
  1960,             0.0000
  1970,             0.0000
  1980,             0.0000
  1990,             0.0000
  2000,             0.0000
  2010,             0.0000
  2020,             0.0000
  2030,             0.0000
  2040,             0.0000
  2050,             0.0000
  2060,             0.0000
  2070,             0.0000
  2080,             0.0000
  2090,             0.0000
  2100,             0.0000
  2110,             0.0000
  2120,             0.0000
  2130,             0.0000
  2140,             0.0000
  2150,             0.0000
  2160,             0.0000
  2170,             0.0000
  2180,             0.0000
  2190,             0.0000
  2200,             0.0000
  2210,             0.0000
  2220,             0.0000
  2230,             0.0000
  2240,             0.0000
  2250,             0.0000
  2260,             0.0000
  2270,             0.0000
  2280,             0.0000
  2290,             0.0000
  2300,             0.0000
  2310,             0.0000
  2320,             0.0000
  2330,             0.0000
  2340,             0.0000
  2350,             0.0000
  2360,             0.0000
  2370,             0.0000
  2380,             0.0000
  2390,             0.0000
  2400,             0.0000
  2410,             0.0000
  2420,             0.0000
  2430,             0.0000
  2440,             0.0000
  2450,             0.0000
  2460,             0.0000
  2470,             0.0000
  2480,             0.0000
  2490,             0.0000
  2500,             0.0000
  2510,             0.0000
  2520,             0.0000
  2530,             0.0000
  2540,             0.0000
  2550,             0.0000
  2560,             0.0000
  2570,             0.0000
  2580,             0.0000
  2590,             0.0000
  2600,             0.0000
  2610,             0.0000
  2620,             0.0000
  2630,             0.0000
  2640,             0.0000
  2650,             0.0000
  2660,             0.0000
  2670,             0.0000
  2680,             0.0000
  2690,             0.0000
  2700,             0.0000
  2710,             0.0000
  2720,             0.0000
  2730,             0.0000
  2740,             0.0000
  2750,             0.0000
  2760,             0.0000
  2770,             0.0000
  2780,             0.0000
  2790,             0.0000
  2800,             0.0000
  2810,             0.0000
  2820,             0.0090
  2830,             0.0250
  2840,             0.0540
  2850,             0.0820
  2860,             0.1190
  2870,             0.1570
  2880,             0.2510
  2890,             0.3630
  2900,             0.5230
  2910,             0.5570
  2920,             0.8860
  2930,             1.1560
  2940,             1.4520
  2950,             1.6160
  2960,             2.1340
  2970,             2.5730
  2980,             3.2360
  2990,             3.9490
  3000,             5.0410
  3010,             6.1810
  3020,             7.7590
  3030,             9.5650
  3040,            12.5260
  3050,            19.5380
  3060,            24.1800
  3070,            24.0700
  3080,            23.6220
  3090,            23.3530
  3100,            19.9970
  3110,            11.4540
  3120,             4.3560
  3130,             0.7280
  3140,             0.0000
XiO Dose Volume Histogram
01234567
course1
CTV
1.00	mm resolution
315	bins
Mon Jan 01 23:59:59 2014
Min. Bin Dose (cGy),  Bin Volume (cc)
     0,             0.0000
    10,             0.0000
    20,             0.0000
    30,             0.0000
    40,             0.0000
    50,             0.0000
    60,             0.0000
    70,             0.0000
    80,             0.0000
    90,             0.0000
   100,             0.0000
   110,             0.0000
   120,             0.0000
   130,             0.0000
   140,             0.0000
   150,             0.0000
   160,             0.0000
   170,             0.0000
   180,             0.0000
   190,             0.0000
   200,             0.0000
   210,             0.0000
   220,             0.0000
   230,             0.0000
   240,             0.0000
   250,             0.0000
   260,             0.0000
   270,             0.0000
   280,             0.0000
   290,             0.0000
   300,             0.0000
   310,             0.0000
   320,             0.0000
   330,             0.0000
   340,             0.0000
   350,             0.0000
   360,             0.0000
   370,             0.0000
   380,             0.0000
   390,             0.0000
   400,             0.0000
   410,             0.0000
   420,             0.0000
   430,             0.0000
   440,             0.0000
   450,             0.0000
   460,             0.0000
   470,             0.0000
   480,             0.0000
   490,             0.0000
   500,             0.0000
   510,             0.0000
   520,             0.0000
   530,             0.0000
   540,             0.0000
   550,             0.0000
   560,             0.0000
   570,             0.0000
   580,             0.0000
   590,             0.0000
   600,             0.0000
   610,             0.0000
   620,             0.0000
   630,             0.0000
   640,             0.0000
   650,             0.0000
   660,             0.0000
   670,             0.0000
   680,             0.0000
   690,             0.0000
   700,             0.0000
   710,             0.0000
   720,             0.0000
   730,             0.0000
   740,             0.0000
   750,             0.0000
   760,             0.0000
   770,             0.0000
   780,             0.0000
   790,             0.0000
   800,             0.0000
   810,             0.0000
   820,             0.0000
   830,             0.0000
   840,             0.0000
   850,             0.0000
   860,             0.0000
   870,             0.0000
   880,             0.0000
   890,             0.0000
   900,             0.0000
   910,             0.0000
   920,             0.0000
   930,             0.0000
   940,             0.0000
   950,             0.0000
   960,             0.0000
   970,             0.0000
   980,             0.0000
   990,             0.0000
  1000,             0.0000
  1010,             0.0000
  1020,             0.0000
  1030,             0.0000
  1040,             0.0000
  1050,             0.0000
  1060,             0.0000
  1070,             0.0000
  1080,             0.0000
  1090,             0.0000
  1100,             0.0000
  1110,             0.0000
  1120,             0.0000
  1130,             0.0000
  1140,             0.0000
  1150,             0.0000
  1160,             0.0000
  1170,             0.0000
  1180,             0.0000
  1190,             0.0000
  1200,             0.0000
  1210,             0.0000
  1220,             0.0000
  1230,             0.0000
  1240,             0.0000
  1250,             0.0000
  1260,             0.0000
  1270,             0.0000
  1280,             0.0000
  1290,             0.0000
  1300,             0.0000
  1310,             0.0000
  1320,             0.0000
  1330,             0.0000
  1340,             0.0000
  1350,             0.0000
  1360,             0.0000
  1370,             0.0000
  1380,             0.0000
  1390,             0.0000
  1400,             0.0000
  1410,             0.0000
  1420,             0.0000
  1430,             0.0000
  1440,             0.0000
  1450,             0.0000
  1460,             0.0000
  1470,             0.0000
  1480,             0.0000
  1490,             0.0000
  1500,             0.0000
  1510,             0.0000
  1520,             0.0000
  1530,             0.0000
  1540,             0.0000
  1550,             0.0000
  1560,             0.0000
  1570,             0.0000
  1580,             0.0000
  1590,             0.0000
  1600,             0.0000
  1610,             0.0000
  1620,             0.0000
  1630,             0.0000
  1640,             0.0000
  1650,             0.0000
  1660,             0.0000
  1670,             0.0000
  1680,             0.0000
  1690,             0.0000
  1700,             0.0000
  1710,             0.0000
  1720,             0.0000
  1730,             0.0000
  1740,             0.0000
  1750,             0.0000
  1760,             0.0000
  1770,             0.0000
  1780,             0.0000
  1790,             0.0000
  1800,             0.0000
  1810,             0.0000
  1820,             0.0000
  1830,             0.0000
  1840,             0.0000
  1850,             0.0000
  1860,             0.0000
  1870,             0.0000
  1880,             0.0000
  1890,             0.0000
  1900,             0.0000
  1910,             0.0000
  1920,             0.0000
  1930,             0.0000
  1940,             0.0000
  1950,             0.0000
  1960,             0.0000
  1970,             0.0000
  1980,             0.0000
  1990,             0.0000
  2000,             0.0000
  2010,             0.0000
  2020,             0.0000
  2030,             0.0000
  2040,             0.0000
  2050,             0.0000
  2060,             0.0000
  2070,             0.0000
  2080,             0.0000
  2090,             0.0000
  2100,             0.0000
  2110,             0.0000
  2120,             0.0000
  2130,             0.0000
  2140,             0.0000
  2150,             0.0000
  2160,             0.0000
  2170,             0.0000
  2180,             0.0000
  2190,             0.0000
  2200,             0.0000
  2210,             0.0000
  2220,             0.0000
  2230,             0.0000
  2240,             0.0000
  2250,             0.0000
  2260,             0.0000
  2270,             0.0000
  2280,             0.0000
  2290,             0.0000
  2300,             0.0000
  2310,             0.0000
  2320,             0.0000
  2330,             0.0000
  2340,             0.0000
  2350,             0.0000
  2360,             0.0000
  2370,             0.0000
  2380,             0.0000
  2390,             0.0000
  2400,             0.0000
  2410,             0.0000
  2420,             0.0000
  2430,             0.0000
  2440,             0.0000
  2450,             0.0000
  2460,             0.0000
  2470,             0.0000
  2480,             0.0000
  2490,             0.0000
  2500,             0.0000
  2510,             0.0000
  2520,             0.0000
  2530,             0.0000
  2540,             0.0000
  2550,             0.0000
  2560,             0.0000
  2570,             0.0000
  2580,             0.0000
  2590,             0.0000
  2600,             0.0000
  2610,             0.0000
  2620,             0.0000
  2630,             0.0000
  2640,             0.0000
  2650,             0.0000
  2660,             0.0000
  2670,             0.0000
  2680,             0.0000
  2690,             0.0000
  2700,             0.0000
  2710,             0.0000
  2720,             0.0000
  2730,             0.0000
  2740,             0.0000
  2750,             0.0000
  2760,             0.0000
  2770,             0.0000
  2780,             0.0000
  2790,             0.0000
  2800,             0.0000
  2810,             0.0000
  2820,             0.0000
  2830,             0.0000
  2840,             0.0000
  2850,             0.0000
  2860,             0.0000
  2870,             0.0000
  2880,             0.0000
  2890,             0.0000
  2900,             0.0000
  2910,             0.0000
  2920,             0.0000
  2930,             0.0000
  2940,             0.0000
  2950,             0.0000
  2960,             0.0000
  2970,             0.0000
  2980,             0.0380
  2990,             0.1550
  3000,             0.3410
  3010,             0.6420
  3020,             1.0150
  3030,             1.6950
  3040,             3.5220
  3050,             9.6070
  3060,            13.8910
  3070,            13.5050
  3080,            11.8760
  3090,            12.1270
  3100,             8.5520
  3110,             2.2680
  3120,             0.0860
  3130,             0.0000
  3140,             0.0000
XiO Dose Volume Histogram
01234567
course1
lt kidney
1.00	mm resolution
315	bins
Mon Jan 01 23:59:59 2014
Min. Bin Dose (cGy),  Bin Volume (cc)
     0,           372.5700
    10,            39.4480
    20,             0.0920
    30,             0.0000
    40,             0.0000
    50,             0.0000
    60,             0.0000
    70,             0.0000
    80,             0.0000
    90,             0.0000
   100,             0.0000
   110,             0.0000
   120,             0.0000
   130,             0.0000
   140,             0.0000
   150,             0.0000
   160,             0.0000
   170,             0.0000
   180,             0.0000
   190,             0.0000
   200,             0.0000
   210,             0.0000
   220,             0.0000
   230,             0.0000
   240,             0.0000
   250,             0.0000
   260,             0.0000
   270,             0.0000
   280,             0.0000
   290,             0.0000
   300,             0.0000
   310,             0.0000
   320,             0.0000
   330,             0.0000
   340,             0.0000
   350,             0.0000
   360,             0.0000
   370,             0.0000
   380,             0.0000
   390,             0.0000
   400,             0.0000
   410,             0.0000
   420,             0.0000
   430,             0.0000
   440,             0.0000
   450,             0.0000
   460,             0.0000
   470,             0.0000
   480,             0.0000
   490,             0.0000
   500,             0.0000
   510,             0.0000
   520,             0.0000
   530,             0.0000
   540,             0.0000
   550,             0.0000
   560,             0.0000
   570,             0.0000
   580,             0.0000
   590,             0.0000
   600,             0.0000
   610,             0.0000
   620,             0.0000
   630,             0.0000
   640,             0.0000
   650,             0.0000
   660,             0.0000
   670,             0.0000
   680,             0.0000
   690,             0.0000
   700,             0.0000
   710,             0.0000
   720,             0.0000
   730,             0.0000
   740,             0.0000
   750,             0.0000
   760,             0.0000
   770,             0.0000
   780,             0.0000
   790,             0.0000
   800,             0.0000
   810,             0.0000
   820,             0.0000
   830,             0.0000
   840,             0.0000
   850,             0.0000
   860,             0.0000
   870,             0.0000
   880,             0.0000
   890,             0.0000
   900,             0.0000
   910,             0.0000
   920,             0.0000
   930,             0.0000
   940,             0.0000
   950,             0.0000
   960,             0.0000
   970,             0.0000
   980,             0.0000
   990,             0.0000
  1000,             0.0000
  1010,             0.0000
  1020,             0.0000
  1030,             0.0000
  1040,             0.0000
  1050,             0.0000
  1060,             0.0000
  1070,             0.0000
  1080,             0.0000
  1090,             0.0000
  1100,             0.0000
  1110,             0.0000
  1120,             0.0000
  1130,             0.0000
  1140,             0.0000
  1150,             0.0000
  1160,             0.0000
  1170,             0.0000
  1180,             0.0000
  1190,             0.0000
  1200,             0.0000
  1210,             0.0000
  1220,             0.0000
  1230,             0.0000
  1240,             0.0000
  1250,             0.0000
  1260,             0.0000
  1270,             0.0000
  1280,             0.0000
  1290,             0.0000
  1300,             0.0000
  1310,             0.0000
  1320,             0.0000
  1330,             0.0000
  1340,             0.0000
  1350,             0.0000
  1360,             0.0000
  1370,             0.0000
  1380,             0.0000
  1390,             0.0000
  1400,             0.0000
  1410,             0.0000
  1420,             0.0000
  1430,             0.0000
  1440,             0.0000
  1450,             0.0000
  1460,             0.0000
  1470,             0.0000
  1480,             0.0000
  1490,             0.0000
  1500,             0.0000
  1510,             0.0000
  1520,             0.0000
  1530,             0.0000
  1540,             0.0000
  1550,             0.0000
  1560,             0.0000
  1570,             0.0000
  1580,             0.0000
  1590,             0.0000
  1600,             0.0000
  1610,             0.0000
  1620,             0.0000
  1630,             0.0000
  1640,             0.0000
  1650,             0.0000
  1660,             0.0000
  1670,             0.0000
  1680,             0.0000
  1690,             0.0000
  1700,             0.0000
  1710,             0.0000
  1720,             0.0000
  1730,             0.0000
  1740,             0.0000
  1750,             0.0000
  1760,             0.0000
  1770,             0.0000
  1780,             0.0000
  1790,             0.0000
  1800,             0.0000
  1810,             0.0000
  1820,             0.0000
  1830,             0.0000
  1840,             0.0000
  1850,             0.0000
  1860,             0.0000
  1870,             0.0000
  1880,             0.0000
  1890,             0.0000
  1900,             0.0000
  1910,             0.0000
  1920,             0.0000
  1930,             0.0000
  1940,             0.0000
  1950,             0.0000
  1960,             0.0000
  1970,             0.0000
  1980,             0.0000
  1990,             0.0000
  2000,             0.0000
  2010,             0.0000
  2020,             0.0000
  2030,             0.0000
  2040,             0.0000
  2050,             0.0000
  2060,             0.0000
  2070,             0.0000
  2080,             0.0000
  2090,             0.0000
  2100,             0.0000
  2110,             0.0000
  2120,             0.0000
  2130,             0.0000
  2140,             0.0000
  2150,             0.0000
  2160,             0.0000
  2170,             0.0000
  2180,             0.0000
  2190,             0.0000
  2200,             0.0000
  2210,             0.0000
  2220,             0.0000
  2230,             0.0000
  2240,             0.0000
  2250,             0.0000
  2260,             0.0000
  2270,             0.0000
  2280,             0.0000
  2290,             0.0000
  2300,             0.0000
  2310,             0.0000
  2320,             0.0000
  2330,             0.0000
  2340,             0.0000
  2350,             0.0000
  2360,             0.0000
  2370,             0.0000
  2380,             0.0000
  2390,             0.0000
  2400,             0.0000
  2410,             0.0000
  2420,             0.0000
  2430,             0.0000
  2440,             0.0000
  2450,             0.0000
  2460,             0.0000
  2470,             0.0000
  2480,             0.0000
  2490,             0.0000
  2500,             0.0000
  2510,             0.0000
  2520,             0.0000
  2530,             0.0000
  2540,             0.0000
  2550,             0.0000
  2560,             0.0000
  2570,             0.0000
  2580,             0.0000
  2590,             0.0000
  2600,             0.0000
  2610,             0.0000
  2620,             0.0000
  2630,             0.0000
  2640,             0.0000
  2650,             0.0000
  2660,             0.0000
  2670,             0.0000
  2680,             0.0000
  2690,             0.0000
  2700,             0.0000
  2710,             0.0000
  2720,             0.0000
  2730,             0.0000
  2740,             0.0000
  2750,             0.0000
  2760,             0.0000
  2770,             0.0000
  2780,             0.0000
  2790,             0.0000
  2800,             0.0000
  2810,             0.0000
  2820,             0.0000
  2830,             0.0000
  2840,             0.0000
  2850,             0.0000
  2860,             0.0000
  2870,             0.0000
  2880,             0.0000
  2890,             0.0000
  2900,             0.0000
  2910,             0.0000
  2920,             0.0000
  2930,             0.0000
  2940,             0.0000
  2950,             0.0000
  2960,             0.0000
  2970,             0.0000
  2980,             0.0000
  2990,             0.0000
  3000,             0.0000
  3010,             0.0000
  3020,             0.0000
  3030,             0.0000
  3040,             0.0000
  3050,             0.0000
  3060,             0.0000
  3070,             0.0000
  3080,             0.0000
  3090,             0.0000
  3100,             0.0000
  3110,             0.0000
  3120,             0.0000
  3130,             0.0000
  3140,             0.0000
XiO Dose Volume Histogram
01234567
course1
cord
1.00	mm resolution
315	bins
Mon Jan 01 23:59:59 2014
Min. Bin Dose (cGy),  Bin Volume (cc)
     0,            28.1980
    10,             2.7100
    20,             1.5400
    30,             1.0520
    40,             0.7160
    50,             0.4490
    60,             0.0510
    70,             0.0000
    80,             0.0000
    90,             0.0000
   100,             0.0000
   110,             0.0000
   120,             0.0000
   130,             0.0000
   140,             0.0000
   150,             0.0000
   160,             0.0000
   170,             0.0000
   180,             0.0000
   190,             0.0000
   200,             0.0000
   210,             0.0000
   220,             0.0000
   230,             0.0000
   240,             0.0000
   250,             0.0000
   260,             0.0000
   270,             0.0000
   280,             0.0000
   290,             0.0000
   300,             0.0000
   310,             0.0000
   320,             0.0000
   330,             0.0000
   340,             0.0000
   350,             0.0000
   360,             0.0000
   370,             0.0000
   380,             0.0000
   390,             0.0000
   400,             0.0000
   410,             0.0000
   420,             0.0000
   430,             0.0000
   440,             0.0000
   450,             0.0000
   460,             0.0000
   470,             0.0000
   480,             0.0000
   490,             0.0000
   500,             0.0000
   510,             0.0000
   520,             0.0000
   530,             0.0000
   540,             0.0000
   550,             0.0000
   560,             0.0000
   570,             0.0000
   580,             0.0000
   590,             0.0000
   600,             0.0000
   610,             0.0000
   620,             0.0000
   630,             0.0000
   640,             0.0000
   650,             0.0000
   660,             0.0000
   670,             0.0000
   680,             0.0000
   690,             0.0000
   700,             0.0000
   710,             0.0000
   720,             0.0000
   730,             0.0000
   740,             0.0000
   750,             0.0000
   760,             0.0000
   770,             0.0000
   780,             0.0000
   790,             0.0000
   800,             0.0000
   810,             0.0000
   820,             0.0000
   830,             0.0000
   840,             0.0000
   850,             0.0000
   860,             0.0000
   870,             0.0000
   880,             0.0000
   890,             0.0000
   900,             0.0000
   910,             0.0000
   920,             0.0000
   930,             0.0000
   940,             0.0000
   950,             0.0000
   960,             0.0000
   970,             0.0000
   980,             0.0000
   990,             0.0000
  1000,             0.0000
  1010,             0.0000
  1020,             0.0000
  1030,             0.0000
  1040,             0.0000
  1050,             0.0000
  1060,             0.0000
  1070,             0.0000
  1080,             0.0000
  1090,             0.0000
  1100,             0.0000
  1110,             0.0000
  1120,             0.0000
  1130,             0.0000
  1140,             0.0000
  1150,             0.0000
  1160,             0.0000
  1170,             0.0000
  1180,             0.0000
  1190,             0.0000
  1200,             0.0000
  1210,             0.0000
  1220,             0.0000
  1230,             0.0000
  1240,             0.0000
  1250,             0.0000
  1260,             0.0000
  1270,             0.0000
  1280,             0.0000
  1290,             0.0000
  1300,             0.0000
  1310,             0.0000
  1320,             0.0000
  1330,             0.0000
  1340,             0.0000
  1350,             0.0000
  1360,             0.0000
  1370,             0.0000
  1380,             0.0000
  1390,             0.0000
  1400,             0.0000
  1410,             0.0000
  1420,             0.0000
  1430,             0.0000
  1440,             0.0000
  1450,             0.0000
  1460,             0.0000
  1470,             0.0000
  1480,             0.0000
  1490,             0.0000
  1500,             0.0000
  1510,             0.0000
  1520,             0.0000
  1530,             0.0000
  1540,             0.0000
  1550,             0.0000
  1560,             0.0000
  1570,             0.0000
  1580,             0.0000
  1590,             0.0000
  1600,             0.0000
  1610,             0.0000
  1620,             0.0000
  1630,             0.0000
  1640,             0.0000
  1650,             0.0000
  1660,             0.0000
  1670,             0.0000
  1680,             0.0000
  1690,             0.0000
  1700,             0.0000
  1710,             0.0000
  1720,             0.0000
  1730,             0.0000
  1740,             0.0000
  1750,             0.0000
  1760,             0.0000
  1770,             0.0000
  1780,             0.0000
  1790,             0.0000
  1800,             0.0000
  1810,             0.0000
  1820,             0.0000
  1830,             0.0000
  1840,             0.0000
  1850,             0.0000
  1860,             0.0000
  1870,             0.0000
  1880,             0.0000
  1890,             0.0000
  1900,             0.0000
  1910,             0.0000
  1920,             0.0000
  1930,             0.0000
  1940,             0.0000
  1950,             0.0000
  1960,             0.0000
  1970,             0.0000
  1980,             0.0000
  1990,             0.0000
  2000,             0.0000
  2010,             0.0000
  2020,             0.0000
  2030,             0.0000
  2040,             0.0000
  2050,             0.0000
  2060,             0.0000
  2070,             0.0000
  2080,             0.0000
  2090,             0.0000
  2100,             0.0000
  2110,             0.0000
  2120,             0.0000
  2130,             0.0000
  2140,             0.0000
  2150,             0.0000
  2160,             0.0000
  2170,             0.0000
  2180,             0.0000
  2190,             0.0000
  2200,             0.0000
  2210,             0.0000
  2220,             0.0000
  2230,             0.0000
  2240,             0.0000
  2250,             0.0000
  2260,             0.0000
  2270,             0.0000
  2280,             0.0000
  2290,             0.0000
  2300,             0.0000
  2310,             0.0000
  2320,             0.0000
  2330,             0.0000
  2340,             0.0000
  2350,             0.0000
  2360,             0.0000
  2370,             0.0000
  2380,             0.0000
  2390,             0.0000
  2400,             0.0000
  2410,             0.0000
  2420,             0.0000
  2430,             0.0000
  2440,             0.0000
  2450,             0.0000
  2460,             0.0000
  2470,             0.0000
  2480,             0.0000
  2490,             0.0000
  2500,             0.0000
  2510,             0.0000
  2520,             0.0000
  2530,             0.0000
  2540,             0.0000
  2550,             0.0000
  2560,             0.0000
  2570,             0.0000
  2580,             0.0000
  2590,             0.0000
  2600,             0.0000
  2610,             0.0000
  2620,             0.0000
  2630,             0.0000
  2640,             0.0000
  2650,             0.0000
  2660,             0.0000
  2670,             0.0000
  2680,             0.0000
  2690,             0.0000
  2700,             0.0000
  2710,             0.0000
  2720,             0.0000
  2730,             0.0000
  2740,             0.0000
  2750,             0.0000
  2760,             0.0000
  2770,             0.0000
  2780,             0.0000
  2790,             0.0000
  2800,             0.0000
  2810,             0.0000
  2820,             0.0000
  2830,             0.0000
  2840,             0.0000
  2850,             0.0000
  2860,             0.0000
  2870,             0.0000
  2880,             0.0000
  2890,             0.0000
  2900,             0.0000
  2910,             0.0000
  2920,             0.0000
  2930,             0.0000
  2940,             0.0000
  2950,             0.0000
  2960,             0.0000
  2970,             0.0000
  2980,             0.0000
  2990,             0.0000
  3000,             0.0000
  3010,             0.0000
  3020,             0.0000
  3030,             0.0000
  3040,             0.0000
  3050,             0.0000
  3060,             0.0000
  3070,             0.0000
  3080,             0.0000
  3090,             0.0000
  3100,             0.0000
  3110,             0.0000
  3120,             0.0000
  3130,             0.0000
  3140,             0.0000
XiO Dose Volume Histogram
01234567
course1
PTV
1.00	mm resolution
315	bins
Mon Jan 01 23:59:59 2014
Min. Bin Dose (cGy),  Bin Volume (cc)
     0,             0.0000
    10,             0.0000
    20,             0.0000
    30,             0.0000
    40,             0.0000
    50,             0.0000
    60,             0.0000
    70,             0.0000
    80,             0.0000
    90,             0.0000
   100,             0.0000
   110,             0.0000
   120,             0.0000
   130,             0.0000
   140,             0.0000
   150,             0.0000
   160,             0.0000
   170,             0.0000
   180,             0.0000
   190,             0.0000
   200,             0.0000
   210,             0.0000
   220,             0.0000
   230,             0.0000
   240,             0.0000
   250,             0.0000
   260,             0.0000
   270,             0.0000
   280,             0.0000
   290,             0.0000
   300,             0.0000
   310,             0.0000
   320,             0.0000
   330,             0.0000
   340,             0.0000
   350,             0.0000
   360,             0.0000
   370,             0.0000
   380,             0.0000
   390,             0.0000
   400,             0.0000
   410,             0.0000
   420,             0.0000
   430,             0.0000
   440,             0.0000
   450,             0.0000
   460,             0.0000
   470,             0.0000
   480,             0.0000
   490,             0.0000
   500,             0.0000
   510,             0.0000
   520,             0.0000
   530,             0.0000
   540,             0.0000
   550,             0.0000
   560,             0.0000
   570,             0.0000
   580,             0.0000
   590,             0.0000
   600,             0.0000
   610,             0.0000
   620,             0.0000
   630,             0.0000
   640,             0.0000
   650,             0.0000
   660,             0.0000
   670,             0.0000
   680,             0.0000
   690,             0.0000
   700,             0.0000
   710,             0.0000
   720,             0.0000
   730,             0.0000
   740,             0.0000
   750,             0.0000
   760,             0.0000
   770,             0.0000
   780,             0.0000
   790,             0.0000
   800,             0.0000
   810,             0.0000
   820,             0.0000
   830,             0.0000
   840,             0.0000
   850,             0.0000
   860,             0.0000
   870,             0.0000
   880,             0.0000
   890,             0.0000
   900,             0.0000
   910,             0.0000
   920,             0.0000
   930,             0.0000
   940,             0.0000
   950,             0.0000
   960,             0.0000
   970,             0.0000
   980,             0.0000
   990,             0.0000
  1000,             0.0000
  1010,             0.0000
  1020,             0.0000
  1030,             0.0000
  1040,             0.0000
  1050,             0.0000
  1060,             0.0000
  1070,             0.0000
  1080,             0.0000
  1090,             0.0000
  1100,             0.0000
  1110,             0.0000
  1120,             0.0000
  1130,             0.0000
  1140,             0.0000
  1150,             0.0000
  1160,             0.0000
  1170,             0.0000
  1180,             0.0000
  1190,             0.0000
  1200,             0.0000
  1210,             0.0000
  1220,             0.0000
  1230,             0.0000
  1240,             0.0000
  1250,             0.0000
  1260,             0.0000
  1270,             0.0000
  1280,             0.0000
  1290,             0.0000
  1300,             0.0000
  1310,             0.0000
  1320,             0.0000
  1330,             0.0000
  1340,             0.0000
  1350,             0.0000
  1360,             0.0000
  1370,             0.0000
  1380,             0.0000
  1390,             0.0000
  1400,             0.0000
  1410,             0.0000
  1420,             0.0000
  1430,             0.0000
  1440,             0.0000
  1450,             0.0000
  1460,             0.0000
  1470,             0.0000
  1480,             0.0000
  1490,             0.0000
  1500,             0.0000
  1510,             0.0000
  1520,             0.0000
  1530,             0.0000
  1540,             0.0000
  1550,             0.0000
  1560,             0.0000
  1570,             0.0000
  1580,             0.0000
  1590,             0.0000
  1600,             0.0000
  1610,             0.0000
  1620,             0.0000
  1630,             0.0000
  1640,             0.0000
  1650,             0.0000
  1660,             0.0000
  1670,             0.0000
  1680,             0.0000
  1690,             0.0000
  1700,             0.0000
  1710,             0.0000
  1720,             0.0000
  1730,             0.0000
  1740,             0.0000
  1750,             0.0000
  1760,             0.0000
  1770,             0.0000
  1780,             0.0000
  1790,             0.0000
  1800,             0.0000
  1810,             0.0000
  1820,             0.0000
  1830,             0.0000
  1840,             0.0000
  1850,             0.0000
  1860,             0.0000
  1870,             0.0000
  1880,             0.0000
  1890,             0.0000
  1900,             0.0000
  1910,             0.0000
  1920,             0.0000
  1930,             0.0000
  1940,             0.0000
  1950,             0.0000
  1960,             0.0000
  1970,             0.0000
  1980,             0.0000
  1990,             0.0000
  2000,             0.0000
  2010,             0.0000
  2020,             0.0000
  2030,             0.0000
  2040,             0.0000
  2050,             0.0000
  2060,             0.0000
  2070,             0.0000
  2080,             0.0000
  2090,             0.0000
  2100,             0.0000
  2110,             0.0000
  2120,             0.0000
  2130,             0.0000
  2140,             0.0000
  2150,             0.0000
  2160,             0.0000
  2170,             0.0000
  2180,             0.0000
  2190,             0.0000
  2200,             0.0000
  2210,             0.0000
  2220,             0.0000
  2230,             0.0000
  2240,             0.0000
  2250,             0.0000
  2260,             0.0000
  2270,             0.0000
  2280,             0.0000
  2290,             0.0000
  2300,             0.0000
  2310,             0.0000
  2320,             0.0000
  2330,             0.0000
  2340,             0.0000
  2350,             0.0000
  2360,             0.0000
  2370,             0.0000
  2380,             0.0000
  2390,             0.0000
  2400,             0.0000
  2410,             0.0000
  2420,             0.0000
  2430,             0.0000
  2440,             0.0000
  2450,             0.0000
  2460,             0.0000
  2470,             0.0000
  2480,             0.0000
  2490,             0.0000
  2500,             0.0000
  2510,             0.0000
  2520,             0.0000
  2530,             0.0000
  2540,             0.0000
  2550,             0.0000
  2560,             0.0000
  2570,             0.0000
  2580,             0.0000
  2590,             0.0000
  2600,             0.0000
  2610,             0.0000
  2620,             0.0000
  2630,             0.0000
  2640,             0.0000
  2650,             0.0000
  2660,             0.0000
  2670,             0.0000
  2680,             0.0000
  2690,             0.0000
  2700,             0.0000
  2710,             0.0000
  2720,             0.0000
  2730,             0.0000
  2740,             0.0000
  2750,             0.0000
  2760,             0.0000
  2770,             0.0000
  2780,             0.0000
  2790,             0.0000
  2800,             0.0000
  2810,             0.0000
  2820,             0.0090
  2830,             0.0250
  2840,             0.0540
  2850,             0.0820
  2860,             0.1190
  2870,             0.1570
  2880,             0.2510
  2890,             0.3630
  2900,             0.5230
  2910,             0.5570
  2920,             0.8860
  2930,             1.1560
  2940,             1.4520
  2950,             1.6160
  2960,             2.1340
  2970,             2.5730
  2980,             3.2360
  2990,             3.9490
  3000,             5.0410
  3010,             6.1810
  3020,             7.7590
  3030,             9.5650
  3040,            12.5260
  3050,            19.5380
  3060,            24.1800
  3070,            24.0700
  3080,            23.6220
  3090,            23.3530
  3100,            19.9970
  3110,            11.4540
  3120,             4.3560
  3130,             0.7280
  3140,             0.0000
XiO Dose Volume Histogram
01234567
course1
CTV
1.00	mm resolution
315	bins
Mon Jan 01 23:59:59 2014
Min. Bin Dose (cGy),  Bin Volume (cc)
     0,             0.0000
    10,             0.0000
    20,             0.0000
    30,             0.0000
    40,             0.0000
    50,             0.0000
    60,             0.0000
    70,             0.0000
    80,             0.0000
    90,             0.0000
   100,             0.0000
   110,             0.0000
   120,             0.0000
   130,             0.0000
   140,             0.0000
   150,             0.0000
   160,             0.0000
   170,             0.0000
   180,             0.0000
   190,             0.0000
   200,             0.0000
   210,             0.0000
   220,             0.0000
   230,             0.0000
   240,             0.0000
   250,             0.0000
   260,             0.0000
   270,             0.0000
   280,             0.0000
   290,             0.0000
   300,             0.0000
   310,             0.0000
   320,             0.0000
   330,             0.0000
   340,             0.0000
   350,             0.0000
   360,             0.0000
   370,             0.0000
   380,             0.0000
   390,             0.0000
   400,             0.0000
   410,             0.0000
   420,             0.0000
   430,             0.0000
   440,             0.0000
   450,             0.0000
   460,             0.0000
   470,             0.0000
   480,             0.0000
   490,             0.0000
   500,             0.0000
   510,             0.0000
   520,             0.0000
   530,             0.0000
   540,             0.0000
   550,             0.0000
   560,             0.0000
   570,             0.0000
   580,             0.0000
   590,             0.0000
   600,             0.0000
   610,             0.0000
   620,             0.0000
   630,             0.0000
   640,             0.0000
   650,             0.0000
   660,             0.0000
   670,             0.0000
   680,             0.0000
   690,             0.0000
   700,             0.0000
   710,             0.0000
   720,             0.0000
   730,             0.0000
   740,             0.0000
   750,             0.0000
   760,             0.0000
   770,             0.0000
   780,             0.0000
   790,             0.0000
   800,             0.0000
   810,             0.0000
   820,             0.0000
   830,             0.0000
   840,             0.0000
   850,             0.0000
   860,             0.0000
   870,             0.0000
   880,             0.0000
   890,             0.0000
   900,             0.0000
   910,             0.0000
   920,             0.0000
   930,             0.0000
   940,             0.0000
   950,             0.0000
   960,             0.0000
   970,             0.0000
   980,             0.0000
   990,             0.0000
  1000,             0.0000
  1010,             0.0000
  1020,             0.0000
  1030,             0.0000
  1040,             0.0000
  1050,             0.0000
  1060,             0.0000
  1070,             0.0000
  1080,             0.0000
  1090,             0.0000
  1100,             0.0000
  1110,             0.0000
  1120,             0.0000
  1130,             0.0000
  1140,             0.0000
  1150,             0.0000
  1160,             0.0000
  1170,             0.0000
  1180,             0.0000
  1190,             0.0000
  1200,             0.0000
  1210,             0.0000
  1220,             0.0000
  1230,             0.0000
  1240,             0.0000
  1250,             0.0000
  1260,             0.0000
  1270,             0.0000
  1280,             0.0000
  1290,             0.0000
  1300,             0.0000
  1310,             0.0000
  1320,             0.0000
  1330,             0.0000
  1340,             0.0000
  1350,             0.0000
  1360,             0.0000
  1370,             0.0000
  1380,             0.0000
  1390,             0.0000
  1400,             0.0000
  1410,             0.0000
  1420,             0.0000
  1430,             0.0000
  1440,             0.0000
  1450,             0.0000
  1460,             0.0000
  1470,             0.0000
  1480,             0.0000
  1490,             0.0000
  1500,             0.0000
  1510,             0.0000
  1520,             0.0000
  1530,             0.0000
  1540,             0.0000
  1550,             0.0000
  1560,             0.0000
  1570,             0.0000
  1580,             0.0000
  1590,             0.0000
  1600,             0.0000
  1610,             0.0000
  1620,             0.0000
  1630,             0.0000
  1640,             0.0000
  1650,             0.0000
  1660,             0.0000
  1670,             0.0000
  1680,             0.0000
  1690,             0.0000
  1700,             0.0000
  1710,             0.0000
  1720,             0.0000
  1730,             0.0000
  1740,             0.0000
  1750,             0.0000
  1760,             0.0000
  1770,             0.0000
  1780,             0.0000
  1790,             0.0000
  1800,             0.0000
  1810,             0.0000
  1820,             0.0000
  1830,             0.0000
  1840,             0.0000
  1850,             0.0000
  1860,             0.0000
  1870,             0.0000
  1880,             0.0000
  1890,             0.0000
  1900,             0.0000
  1910,             0.0000
  1920,             0.0000
  1930,             0.0000
  1940,             0.0000
  1950,             0.0000
  1960,             0.0000
  1970,             0.0000
  1980,             0.0000
  1990,             0.0000
  2000,             0.0000
  2010,             0.0000
  2020,             0.0000
  2030,             0.0000
  2040,             0.0000
  2050,             0.0000
  2060,             0.0000
  2070,             0.0000
  2080,             0.0000
  2090,             0.0000
  2100,             0.0000
  2110,             0.0000
  2120,             0.0000
  2130,             0.0000
  2140,             0.0000
  2150,             0.0000
  2160,             0.0000
  2170,             0.0000
  2180,             0.0000
  2190,             0.0000
  2200,             0.0000
  2210,             0.0000
  2220,             0.0000
  2230,             0.0000
  2240,             0.0000
  2250,             0.0000
  2260,             0.0000
  2270,             0.0000
  2280,             0.0000
  2290,             0.0000
  2300,             0.0000
  2310,             0.0000
  2320,             0.0000
  2330,             0.0000
  2340,             0.0000
  2350,             0.0000
  2360,             0.0000
  2370,             0.0000
  2380,             0.0000
  2390,             0.0000
  2400,             0.0000
  2410,             0.0000
  2420,             0.0000
  2430,             0.0000
  2440,             0.0000
  2450,             0.0000
  2460,             0.0000
  2470,             0.0000
  2480,             0.0000
  2490,             0.0000
  2500,             0.0000
  2510,             0.0000
  2520,             0.0000
  2530,             0.0000
  2540,             0.0000
  2550,             0.0000
  2560,             0.0000
  2570,             0.0000
  2580,             0.0000
  2590,             0.0000
  2600,             0.0000
  2610,             0.0000
  2620,             0.0000
  2630,             0.0000
  2640,             0.0000
  2650,             0.0000
  2660,             0.0000
  2670,             0.0000
  2680,             0.0000
  2690,             0.0000
  2700,             0.0000
  2710,             0.0000
  2720,             0.0000
  2730,             0.0000
  2740,             0.0000
  2750,             0.0000
  2760,             0.0000
  2770,             0.0000
  2780,             0.0000
  2790,             0.0000
  2800,             0.0000
  2810,             0.0000
  2820,             0.0000
  2830,             0.0000
  2840,             0.0000
  2850,             0.0000
  2860,             0.0000
  2870,             0.0000
  2880,             0.0000
  2890,             0.0000
  2900,             0.0000
  2910,             0.0000
  2920,             0.0000
  2930,             0.0000
  2940,             0.0000
  2950,             0.0000
  2960,             0.0000
  2970,             0.0000
  2980,             0.0380
  2990,             0.1550
  3000,             0.3410
  3010,             0.6420
  3020,             1.0150
  3030,             1.6950
  3040,             3.5220
  3050,             9.6070
  3060,            13.8910
  3070,            13.5050
  3080,            11.8760
  3090,            12.1270
  3100,             8.5520
  3110,             2.2680
  3120,             0.0860
  3130,             0.0000
  3140,             0.0000
XiO Dose Volume Histogram
01234567
course1
cord
1.00	mm resolution
315	bins
Mon Jan 01 23:59:59 2014
Min. Bin Dose (cGy),  Bin Volume (cc)
     0,            28.1980
    10,             2.7100
    20,             1.5400
    30,             1.0520
    40,             0.7160
    50,             0.4490
    60,             0.0510
    70,             0.0000
    80,             0.0000
    90,             0.0000
   100,             0.0000
   110,             0.0000
   120,             0.0000
   130,             0.0000
   140,             0.0000
   150,             0.0000
   160,             0.0000
   170,             0.0000
   180,             0.0000
   190,             0.0000
   200,             0.0000
   210,             0.0000
   220,             0.0000
   230,             0.0000
   240,             0.0000
   250,             0.0000
   260,             0.0000
   270,             0.0000
   280,             0.0000
   290,             0.0000
   300,             0.0000
   310,             0.0000
   320,             0.0000
   330,             0.0000
   340,             0.0000
   350,             0.0000
   360,             0.0000
   370,             0.0000
   380,             0.0000
   390,             0.0000
   400,             0.0000
   410,             0.0000
   420,             0.0000
   430,             0.0000
   440,             0.0000
   450,             0.0000
   460,             0.0000
   470,             0.0000
   480,             0.0000
   490,             0.0000
   500,             0.0000
   510,             0.0000
   520,             0.0000
   530,             0.0000
   540,             0.0000
   550,             0.0000
   560,             0.0000
   570,             0.0000
   580,             0.0000
   590,             0.0000
   600,             0.0000
   610,             0.0000
   620,             0.0000
   630,             0.0000
   640,             0.0000
   650,             0.0000
   660,             0.0000
   670,             0.0000
   680,             0.0000
   690,             0.0000
   700,             0.0000
   710,             0.0000
   720,             0.0000
   730,             0.0000
   740,             0.0000
   750,             0.0000
   760,             0.0000
   770,             0.0000
   780,             0.0000
   790,             0.0000
   800,             0.0000
   810,             0.0000
   820,             0.0000
   830,             0.0000
   840,             0.0000
   850,             0.0000
   860,             0.0000
   870,             0.0000
   880,             0.0000
   890,             0.0000
   900,             0.0000
   910,             0.0000
   920,             0.0000
   930,             0.0000
   940,             0.0000
   950,             0.0000
   960,             0.0000
   970,             0.0000
   980,             0.0000
   990,             0.0000
  1000,             0.0000
  1010,             0.0000
  1020,             0.0000
  1030,             0.0000
  1040,             0.0000
  1050,             0.0000
  1060,             0.0000
  1070,             0.0000
  1080,             0.0000
  1090,             0.0000
  1100,             0.0000
  1110,             0.0000
  1120,             0.0000
  1130,             0.0000
  1140,             0.0000
  1150,             0.0000
  1160,             0.0000
  1170,             0.0000
  1180,             0.0000
  1190,             0.0000
  1200,             0.0000
  1210,             0.0000
  1220,             0.0000
  1230,             0.0000
  1240,             0.0000
  1250,             0.0000
  1260,             0.0000
  1270,             0.0000
  1280,             0.0000
  1290,             0.0000
  1300,             0.0000
  1310,             0.0000
  1320,             0.0000
  1330,             0.0000
  1340,             0.0000
  1350,             0.0000
  1360,             0.0000
  1370,             0.0000
  1380,             0.0000
  1390,             0.0000
  1400,             0.0000
  1410,             0.0000
  1420,             0.0000
  1430,             0.0000
  1440,             0.0000
  1450,             0.0000
  1460,             0.0000
  1470,             0.0000
  1480,             0.0000
  1490,             0.0000
  1500,             0.0000
  1510,             0.0000
  1520,             0.0000
  1530,             0.0000
  1540,             0.0000
  1550,             0.0000
  1560,             0.0000
  1570,             0.0000
  1580,             0.0000
  1590,             0.0000
  1600,             0.0000
  1610,             0.0000
  1620,             0.0000
  1630,             0.0000
  1640,             0.0000
  1650,             0.0000
  1660,             0.0000
  1670,             0.0000
  1680,             0.0000
  1690,             0.0000
  1700,             0.0000
  1710,             0.0000
  1720,             0.0000
  1730,             0.0000
  1740,             0.0000
  1750,             0.0000
  1760,             0.0000
  1770,             0.0000
  1780,             0.0000
  1790,             0.0000
  1800,             0.0000
  1810,             0.0000
  1820,             0.0000
  1830,             0.0000
  1840,             0.0000
  1850,             0.0000
  1860,             0.0000
  1870,             0.0000
  1880,             0.0000
  1890,             0.0000
  1900,             0.0000
  1910,             0.0000
  1920,             0.0000
  1930,             0.0000
  1940,             0.0000
  1950,             0.0000
  1960,             0.0000
  1970,             0.0000
  1980,             0.0000
  1990,             0.0000
  2000,             0.0000
  2010,             0.0000
  2020,             0.0000
  2030,             0.0000
  2040,             0.0000
  2050,             0.0000
  2060,             0.0000
  2070,             0.0000
  2080,             0.0000
  2090,             0.0000
  2100,             0.0000
  2110,             0.0000
  2120,             0.0000
  2130,             0.0000
  2140,             0.0000
  2150,             0.0000
  2160,             0.0000
  2170,             0.0000
  2180,             0.0000
  2190,             0.0000
  2200,             0.0000
  2210,             0.0000
  2220,             0.0000
  2230,             0.0000
  2240,             0.0000
  2250,             0.0000
  2260,             0.0000
  2270,             0.0000
  2280,             0.0000
  2290,             0.0000
  2300,             0.0000
  2310,             0.0000
  2320,             0.0000
  2330,             0.0000
  2340,             0.0000
  2350,             0.0000
  2360,             0.0000
  2370,             0.0000
  2380,             0.0000
  2390,             0.0000
  2400,             0.0000
  2410,             0.0000
  2420,             0.0000
  2430,             0.0000
  2440,             0.0000
  2450,             0.0000
  2460,             0.0000
  2470,             0.0000
  2480,             0.0000
  2490,             0.0000
  2500,             0.0000
  2510,             0.0000
  2520,             0.0000
  2530,             0.0000
  2540,             0.0000
  2550,             0.0000
  2560,             0.0000
  2570,             0.0000
  2580,             0.0000
  2590,             0.0000
  2600,             0.0000
  2610,             0.0000
  2620,             0.0000
  2630,             0.0000
  2640,             0.0000
  2650,             0.0000
  2660,             0.0000
  2670,             0.0000
  2680,             0.0000
  2690,             0.0000
  2700,             0.0000
  2710,             0.0000
  2720,             0.0000
  2730,             0.0000
  2740,             0.0000
  2750,             0.0000
  2760,             0.0000
  2770,             0.0000
  2780,             0.0000
  2790,             0.0000
  2800,             0.0000
  2810,             0.0000
  2820,             0.0000
  2830,             0.0000
  2840,             0.0000
  2850,             0.0000
  2860,             0.0000
  2870,             0.0000
  2880,             0.0000
  2890,             0.0000
  2900,             0.0000
  2910,             0.0000
  2920,             0.0000
  2930,             0.0000
  2940,             0.0000
  2950,             0.0000
  2960,             0.0000
  2970,             0.0000
  2980,             0.0000
  2990,             0.0000
  3000,             0.0000
  3010,             0.0000
  3020,             0.0000
  3030,             0.0000
  3040,             0.0000
  3050,             0.0000
  3060,             0.0000
  3070,             0.0000
  3080,             0.0000
  3090,             0.0000
  3100,             0.0000
  3110,             0.0000
  3120,             0.0000
  3130,             0.0000
  3140,             0.0000
XiO Dose Volume Histogram
01234567
course1
lt kidney
1.00	mm resolution
315	bins
Mon Jan 01 23:59:59 2014
Min. Bin Dose (cGy),  Bin Volume (cc)
     0,           372.5700
    10,            39.4480
    20,             0.0920
    30,             0.0000
    40,             0.0000
    50,             0.0000
    60,             0.0000
    70,             0.0000
    80,             0.0000
    90,             0.0000
   100,             0.0000
   110,             0.0000
   120,             0.0000
   130,             0.0000
   140,             0.0000
   150,             0.0000
   160,             0.0000
   170,             0.0000
   180,             0.0000
   190,             0.0000
   200,             0.0000
   210,             0.0000
   220,             0.0000
   230,             0.0000
   240,             0.0000
   250,             0.0000
   260,             0.0000
   270,             0.0000
   280,             0.0000
   290,             0.0000
   300,             0.0000
   310,             0.0000
   320,             0.0000
   330,             0.0000
   340,             0.0000
   350,             0.0000
   360,             0.0000
   370,             0.0000
   380,             0.0000
   390,             0.0000
   400,             0.0000
   410,             0.0000
   420,             0.0000
   430,             0.0000
   440,             0.0000
   450,             0.0000
   460,             0.0000
   470,             0.0000
   480,             0.0000
   490,             0.0000
   500,             0.0000
   510,             0.0000
   520,             0.0000
   530,             0.0000
   540,             0.0000
   550,             0.0000
   560,             0.0000
   570,             0.0000
   580,             0.0000
   590,             0.0000
   600,             0.0000
   610,             0.0000
   620,             0.0000
   630,             0.0000
   640,             0.0000
   650,             0.0000
   660,             0.0000
   670,             0.0000
   680,             0.0000
   690,             0.0000
   700,             0.0000
   710,             0.0000
   720,             0.0000
   730,             0.0000
   740,             0.0000
   750,             0.0000
   760,             0.0000
   770,             0.0000
   780,             0.0000
   790,             0.0000
   800,             0.0000
   810,             0.0000
   820,             0.0000
   830,             0.0000
   840,             0.0000
   850,             0.0000
   860,             0.0000
   870,             0.0000
   880,             0.0000
   890,             0.0000
   900,             0.0000
   910,             0.0000
   920,             0.0000
   930,             0.0000
   940,             0.0000
   950,             0.0000
   960,             0.0000
   970,             0.0000
   980,             0.0000
   990,             0.0000
  1000,             0.0000
  1010,             0.0000
  1020,             0.0000
  1030,             0.0000
  1040,             0.0000
  1050,             0.0000
  1060,             0.0000
  1070,             0.0000
  1080,             0.0000
  1090,             0.0000
  1100,             0.0000
  1110,             0.0000
  1120,             0.0000
  1130,             0.0000
  1140,             0.0000
  1150,             0.0000
  1160,             0.0000
  1170,             0.0000
  1180,             0.0000
  1190,             0.0000
  1200,             0.0000
  1210,             0.0000
  1220,             0.0000
  1230,             0.0000
  1240,             0.0000
  1250,             0.0000
  1260,             0.0000
  1270,             0.0000
  1280,             0.0000
  1290,             0.0000
  1300,             0.0000
  1310,             0.0000
  1320,             0.0000
  1330,             0.0000
  1340,             0.0000
  1350,             0.0000
  1360,             0.0000
  1370,             0.0000
  1380,             0.0000
  1390,             0.0000
  1400,             0.0000
  1410,             0.0000
  1420,             0.0000
  1430,             0.0000
  1440,             0.0000
  1450,             0.0000
  1460,             0.0000
  1470,             0.0000
  1480,             0.0000
  1490,             0.0000
  1500,             0.0000
  1510,             0.0000
  1520,             0.0000
  1530,             0.0000
  1540,             0.0000
  1550,             0.0000
  1560,             0.0000
  1570,             0.0000
  1580,             0.0000
  1590,             0.0000
  1600,             0.0000
  1610,             0.0000
  1620,             0.0000
  1630,             0.0000
  1640,             0.0000
  1650,             0.0000
  1660,             0.0000
  1670,             0.0000
  1680,             0.0000
  1690,             0.0000
  1700,             0.0000
  1710,             0.0000
  1720,             0.0000
  1730,             0.0000
  1740,             0.0000
  1750,             0.0000
  1760,             0.0000
  1770,             0.0000
  1780,             0.0000
  1790,             0.0000
  1800,             0.0000
  1810,             0.0000
  1820,             0.0000
  1830,             0.0000
  1840,             0.0000
  1850,             0.0000
  1860,             0.0000
  1870,             0.0000
  1880,             0.0000
  1890,             0.0000
  1900,             0.0000
  1910,             0.0000
  1920,             0.0000
  1930,             0.0000
  1940,             0.0000
  1950,             0.0000
  1960,             0.0000
  1970,             0.0000
  1980,             0.0000
  1990,             0.0000
  2000,             0.0000
  2010,             0.0000
  2020,             0.0000
  2030,             0.0000
  2040,             0.0000
  2050,             0.0000
  2060,             0.0000
  2070,             0.0000
  2080,             0.0000
  2090,             0.0000
  2100,             0.0000
  2110,             0.0000
  2120,             0.0000
  2130,             0.0000
  2140,             0.0000
  2150,             0.0000
  2160,             0.0000
  2170,             0.0000
  2180,             0.0000
  2190,             0.0000
  2200,             0.0000
  2210,             0.0000
  2220,             0.0000
  2230,             0.0000
  2240,             0.0000
  2250,             0.0000
  2260,             0.0000
  2270,             0.0000
  2280,             0.0000
  2290,             0.0000
  2300,             0.0000
  2310,             0.0000
  2320,             0.0000
  2330,             0.0000
  2340,             0.0000
  2350,             0.0000
  2360,             0.0000
  2370,             0.0000
  2380,             0.0000
  2390,             0.0000
  2400,             0.0000
  2410,             0.0000
  2420,             0.0000
  2430,             0.0000
  2440,             0.0000
  2450,             0.0000
  2460,             0.0000
  2470,             0.0000
  2480,             0.0000
  2490,             0.0000
  2500,             0.0000
  2510,             0.0000
  2520,             0.0000
  2530,             0.0000
  2540,             0.0000
  2550,             0.0000
  2560,             0.0000
  2570,             0.0000
  2580,             0.0000
  2590,             0.0000
  2600,             0.0000
  2610,             0.0000
  2620,             0.0000
  2630,             0.0000
  2640,             0.0000
  2650,             0.0000
  2660,             0.0000
  2670,             0.0000
  2680,             0.0000
  2690,             0.0000
  2700,             0.0000
  2710,             0.0000
  2720,             0.0000
  2730,             0.0000
  2740,             0.0000
  2750,             0.0000
  2760,             0.0000
  2770,             0.0000
  2780,             0.0000
  2790,             0.0000
  2800,             0.0000
  2810,             0.0000
  2820,             0.0000
  2830,             0.0000
  2840,             0.0000
  2850,             0.0000
  2860,             0.0000
  2870,             0.0000
  2880,             0.0000
  2890,             0.0000
  2900,             0.0000
  2910,             0.0000
  2920,             0.0000
  2930,             0.0000
  2940,             0.0000
  2950,             0.0000
  2960,             0.0000
  2970,             0.0000
  2980,             0.0000
  2990,             0.0000
  3000,             0.0000
  3010,             0.0000
  3020,             0.0000
  3030,             0.0000
  3040,             0.0000
  3050,             0.0000
  3060,             0.0000
  3070,             0.0000
  3080,             0.0000
  3090,             0.0000
  3100,             0.0000
  3110,             0.0000
  3120,             0.0000
  3130,             0.0000
  3140,             0.0000
